Code-Analysis-P3
…
ℹ Use `spec()` to retrieve the full column specification for this data.
ℹ Specify the column types or set `show_col_types = FALSE` to quiet this message.

#Kaggle data load###
kaggle_url <- "https://raw.githubusercontent.com/meiqing39/607-Project-3/refs/heads/main/data_cleaned_2021.csv"
kg <- read_csv(kaggle_url, show_col_types = FALSE) |> 
  clean_names()   # <- renames by snake_case format, removes special character

#Ensures consistent and reproducible references to variable by using janitor function clean_names()
kg

# A tibble: 742 × 42
   index job_title  salary_estimate job_description rating company_name location
   <dbl> <chr>      <chr>           <chr>            <dbl> <chr>        <chr>   
 1     0 Data Scie… $53K-$91K (Gla… "Data Scientis…    3.8 "Tecolote R… Albuque…
 2     1 Healthcar… $63K-$112K (Gl… "What You Will…    3.4 "University… Linthic…
 3     2 Data Scie… $80K-$90K (Gla… "KnowBe4, Inc.…    4.8 "KnowBe4\n4… Clearwa…
 4     3 Data Scie… $56K-$97K (Gla… "*Organization…    3.8 "PNNL\n3.8"  Richlan…
 5     4 Data Scie… $86K-$143K (Gl… "Data Scientis…    2.9 "Affinity S… New Yor…
 6     5 Data Scie… $71K-$119K (Gl… "CyrusOne is s…    3.4 "CyrusOne\n… Dallas,…
 7     6 Data Scie… $54K-$93K (Gla… "Job Descripti…    4.1 "ClearOne A… Baltimo…
 8     7 Data Scie… $86K-$142K (Gl… "Advanced Anal…    3.8 "Logic20/20… San Jos…
 9     8 Research … $38K-$84K (Gla… "SUMMARY\n\nTh…    3.3 "Rochester … Rochest…
10     9 Data Scie… $120K-$160K (G… "isn’t your us…    4.6 "<intent>\n… New Yor…
# ℹ 732 more rows
# ℹ 35 more variables: headquarters <chr>, size <chr>, founded <dbl>,
#   type_of_ownership <chr>, industry <chr>, sector <chr>, revenue <chr>,
#   competitors <chr>, hourly <dbl>, employer_provided <dbl>,
#   lower_salary <dbl>, upper_salary <dbl>, avg_salary_k <dbl>,
#   company_txt <chr>, job_location <chr>, age <dbl>, python <dbl>,
#   spark <dbl>, aws <dbl>, excel <dbl>, sql <dbl>, sas <dbl>, keras <dbl>, …
…
    job_id = paste0("kg_", row_number()),
    source = "kaggle",
    job_title,
    company = company_name,
    location,
    industry,
    avg_salary_k,
    salary_min_k = lower_salary,
    salary_max_k = upper_salary,
    job_description,
    job_url = NA_character_
  )
kaggle_jobs

# A tibble: 742 × 11
   job_id source job_title   company location industry avg_salary_k salary_min_k
   <chr>  <chr>  <chr>       <chr>   <chr>    <chr>           <dbl>        <dbl>
 1 kg_1   kaggle Data Scien… "Tecol… Albuque… Aerospa…         72             53
 2 kg_2   kaggle Healthcare… "Unive… Linthic… Health …         87.5           63
 3 kg_3   kaggle Data Scien… "KnowB… Clearwa… Securit…         85             80
 4 kg_4   kaggle Data Scien… "PNNL\… Richlan… Energy           76.5           56
 5 kg_5   kaggle Data Scien… "Affin… New Yor… Adverti…        114.            86
 6 kg_6   kaggle Data Scien… "Cyrus… Dallas,… Real Es…         95             71
 7 kg_7   kaggle Data Scien… "Clear… Baltimo… Banks &…         73.5           54
 8 kg_8   kaggle Data Scien… "Logic… San Jos… Consult…        114             86
 9 kg_9   kaggle Research S… "Roche… Rochest… Health …         61             38
10 kg_10  kaggle Data Scien… "<inte… New Yor… Internet        140            120
# ℹ 732 more rows
# ℹ 3 more variables: salary_max_k <dbl>, job_description <chr>, job_url <chr>
…
Merge Job postings

all_jobs <- bind_rows(kaggle_jobs, builtin_jobs_clean)
all_jobs

# A tibble: 753 × 11
   job_id source job_title   company location industry avg_salary_k salary_min_k
   <chr>  <chr>  <chr>       <chr>   <chr>    <chr>           <dbl>        <dbl>
 1 kg_1   kaggle Data Scien… "Tecol… Albuque… Aerospa…         72             53
 2 kg_2   kaggle Healthcare… "Unive… Linthic… Health …         87.5           63
 3 kg_3   kaggle Data Scien… "KnowB… Clearwa… Securit…         85             80
 4 kg_4   kaggle Data Scien… "PNNL\… Richlan… Energy           76.5           56
 5 kg_5   kaggle Data Scien… "Affin… New Yor… Adverti…        114.            86
 6 kg_6   kaggle Data Scien… "Cyrus… Dallas,… Real Es…         95             71
 7 kg_7   kaggle Data Scien… "Clear… Baltimo… Banks &…         73.5           54
 8 kg_8   kaggle Data Scien… "Logic… San Jos… Consult…        114             86
 9 kg_9   kaggle Research S… "Roche… Rochest… Health …         61             38
10 kg_10  kaggle Data Scien… "<inte… New Yor… Internet        140            120
# ℹ 743 more rows
# ℹ 3 more variables: salary_max_k <dbl>, job_description <chr>, job_url <chr>
…
####Merge all skills

all_job_skills <- bind_rows(
  kaggle_job_skills,
  builtin_job_skills_clean
)
all_job_skills

# A tibble: 2,142 × 2
   job_id skill  
   <chr>  <chr>  
 1 kg_1   python 
 2 kg_1   excel  
 3 kg_1   sas    
 4 kg_1   tableau
 5 kg_2   python 
 6 kg_3   python 
 7 kg_3   spark  
 8 kg_3   excel  
 9 kg_3   sql    
10 kg_3   sas    
# ℹ 2,132 more rows

##Checks

count(all_jobs, source)

# A tibble: 2 × 2
  source      n
  <chr>   <int>
1 builtin    11
2 kaggle    742

count(all_job_skills, skill, sort = TRUE)

# A tibble: 23 × 2
   skill       n
   <chr>   <int>
 1 python    402
 2 sql       389
 3 excel     388
 4 aws       183
 5 spark     170
 6 tableau   150
 7 hadoop    124
 8 tensor     72
 9 sas        66
10 scikit     55
# ℹ 13 more rows
…
